[gd_scene load_steps=4 format=3 uid="uid://doh45pqkwnbt4"]

[ext_resource type="PackedScene" uid="uid://dplddyngkq88s" path="res://assets/character/character.gltf" id="1_2b7cm"]
[ext_resource type="Script" path="res://scripts/character.gd" id="1_qk7gw"]

[sub_resource type="CapsuleShape3D" id="CapsuleShape3D_4ser7"]

[node name="Character" type="CharacterBody3D"]
script = ExtResource("1_qk7gw")

[node name="CollisionShape3D" type="CollisionShape3D" parent="."]
transform = Transform3D(1, 0, 0, 0, 1, 0, 0, 0, 1, 0, 1, 0)
shape = SubResource("CapsuleShape3D_4ser7")

[node name="Camera3D" type="Camera3D" parent="."]
transform = Transform3D(1, 0, 0, 0, 1, 0, 0, 0, 1, 0, 1.79599, -0.188221)
current = true

[node name="character" parent="." instance=ExtResource("1_2b7cm")]
transform = Transform3D(-1, 0, -8.74228e-08, 0, 1, 0, 8.74228e-08, 0, -1, 0, 0, 0)
